\babel@toc {ngerman}{}
\babel@toc {ngerman}{}
\beamer@sectionintoc {1}{Einleitung}{2}{0}{1}
\beamer@sectionintoc {2}{Parsing}{3}{0}{2}
\beamer@sectionintoc {3}{Fahrzeuge und Verbrauch}{6}{0}{3}
\beamer@sectionintoc {4}{Demo}{7}{0}{4}
